// TOPIC #3
// TOPIC: Woodburn Forest Oil Drill

// EVENT #3
// EVENT: PSNI accused of squandering £1m on policing oil drill protest - 9 Jul 2016

{
  "articles": {
    "results": [{
      "uri": "993542144",
      "lang": "eng",
      "isDuplicate": false,
      "date": "2018-11-13",
      "time": "16:54:00",
      "dateTime": "2018-11-13T16:54:00Z",
      "dataType": "news",
      "sim": 0.7843137383460999,
      "url": "https:\/\/www.euronews.com\/2018\/11\/13\/former-catalan-leaders-ordered-to-pay-4-9-million-over-independence-vote?utm_source=feedburner&utm_medium=feed&utm_campaign=Feed%253a%2Beuronews%252fen%252fnews%2B%28euronews%2B-%2Bnews%2B-%2Ben%29&utm_content=FeedBurner",
      "title": "PSNI accused of squandering £1m on policing oil drill protest - 9 Jul 2016",
      "body": "Controversy over the squandering £1m on policing oil drill protests",
      "source": {
        "uri": "euronews.com",
        "dataType": "news",
        "title": "Euronews English"
      },
      "authors": [{
        "uri": "alice_cuddy@euronews.com",
        "name": "Alice Cuddy",
        "type": "author",
        "isAgency": false
      }],
      "eventUri": "eng-4419655",
      "wgt": 279824040
    }],
    "totalResults": 164,
    "page": 1,
    "count": 100,
    "pages": 2
  }
}
